%YAML 1.1
%TAG !u! tag:unity3d.com,2011:
--- !u!114 &11400000
MonoBehaviour:
  m_ObjectHideFlags: 0
  m_CorrespondingSourceObject: {fileID: 0}
  m_PrefabInstance: {fileID: 0}
  m_PrefabAsset: {fileID: 0}
  m_GameObject: {fileID: 0}
  m_Enabled: 1
  m_EditorHideFlags: 0
  m_Script: {fileID: 11500000, guid: 4ee808c5937c8264b90d56fc8dec385b, type: 3}
  m_Name: Jupiter
  m_EditorClassIdentifier: 
  planetName: Jupiter
  translationSpeed: 0.1875
  randomSpeedVariance: 0.1
  traslationRadius: 6000
  rotationAxis: {x: 0, y: 1, z: 0}
  rotationSpeed: 5
  size: 750
  mat: {fileID: 2100000, guid: 26241d11c6f230248b734e22c72f1903, type: 2}
  id: 5
  cameraDistance: 3000
